Stats & ML Notes - Infer Package Intro
…
gss_spec_age_partyid <- gss %>% 
  specify(age ~ partyid)
#> Dropping unused factor levels DK from the supplied explanatory variable 'partyid'.

# Object Type
sloop::otype(gss_spec_age_partyid)
#> [1] "S3"
# Class
class(gss_spec_age_partyid)
#> [1] "infer"      "tbl_df"     "tbl"        "data.frame"
# Print
gss_spec_age_partyid
#> Response: age (numeric)
#> Explanatory: partyid (factor)
#> # A tibble: 500 × 2
#>      age partyid
#>    <dbl> <fct>  
#>  1    36 ind    
#>  2    34 rep    
#>  3    24 ind    
#>  4    42 ind    
#>  5    31 rep    
#>  6    32 rep    
#>  7    48 dem    
#>  8    36 ind    
#>  9    30 rep    
#> 10    33 dem    
#> # … with 490 more rows

Categorical Response

specifying for inference on proportions

you will need to use the success argument to specify which level of your response variable is a success.

gss %>%
  specify(response = college, success = "degree")
#> Response: college (factor)
#> # A tibble: 500 × 1
#>    college  
#>    <fct>    
#>  1 degree   
#>  2 no degree
#>  3 degree   
#>  4 no degree
#>  5 degree   
#>  6 no degree
#>  7 no degree
#>  8 degree   
#>  9 degree   
#> 10 no degree
#> # … with 490 more rows
…
null: “independence” or “point”.

Test Independence

If the null hypothesis is that the mean number of hours worked per week in our population is 40, we would write:

gss %>%
  specify(college ~ partyid, success = "degree") %>%
  hypothesize(null = "independence")
#> Dropping unused factor levels DK from the supplied explanatory variable 'partyid'.
#> Response: college (factor)
#> Explanatory: partyid (factor)
#> Null Hypothesis: independence
#> # A tibble: 500 × 2
#>    college   partyid
#>    <fct>     <fct>  
#>  1 degree    ind    
#>  2 no degree rep    
#>  3 degree    ind    
#>  4 no degree ind    
#>  5 degree    rep    
#>  6 no degree rep    
#>  7 no degree dem    
#>  8 degree    ind    
#>  9 degree    rep    
#> 10 no degree dem    
#> # … with 490 more rows

Test Point Estimate

gss %>%
  specify(response = hours) %>%
  hypothesize(null = "point", mu = 40)
#> Response: hours (numeric)
#> Null Hypothesis: point
#> # A tibble: 500 × 1
#>    hours
#>    <dbl>
#>  1    50
#>  2    31
#>  3    40
#>  4    40
#>  5    40
#>  6    53
#>  7    32
#>  8    20
#>  9    40
#> 10    40
#> # … with 490 more rows

generate() NULL distribution

set.seed(1)

gss %>%
  specify(response = hours) %>%
  hypothesize(null = "point", mu = 40) %>%
  generate(reps = 1000, type = "bootstrap")
#> Response: hours (numeric)
#> Null Hypothesis: point
#> # A tibble: 500,000 × 2
#> # Groups:   replicate [1,000]
#>    replicate hours
#>        <int> <dbl>
#>  1         1 46.6 
#>  2         1 43.6 
#>  3         1 38.6 
#>  4         1 28.6 
#>  5         1 38.6 
#>  6         1 38.6 
#>  7         1  6.62
#>  8         1 78.6 
#>  9         1 38.6 
#> 10         1 38.6 
#> # … with 499,990 more rows
…
generate a null distribution

null_dist <- gss %>%
  specify(response = hours) %>%
  hypothesize(null = "point", mu = 40) %>%
  generate(reps = 1000, type = "bootstrap") %>%
  calculate(stat = "mean")

null_dist
#> Response: hours (numeric)
#> Null Hypothesis: point
#> # A tibble: 1,000 × 2
#>    replicate  stat
#>        <int> <dbl>
#>  1         1  40.5
#>  2         2  40.1
#>  3         3  39.1
#>  4         4  40.3
#>  5         5  38.8
#>  6         6  39.6
#>  7         7  40.2
#>  8         8  40.4
#>  9         9  40.1
#> 10        10  40.6
#> # … with 990 more rows
…
