Stats & ML Notes - Sample Size (1)
…
You are interested in determining if the ethnic ratios in a company differ by gender. You collect the following trial data from 200 employees.

employee <- data.frame(
  male = c(rep("White", 0.6 * 100), rep("Black", 0.25 * 100), 
           rep("Am", 0.01 * 100), rep("Asian", 0.14 * 100)),
  female = c(rep("White", 0.65 * 100), rep("Black", 0.21 * 100), 
           rep("Am", 0.11 * 100), rep("Asian", 0.03 * 100))
) |> 
  pivot_longer(cols = everything(),
               names_to = "gender", values_to = "ethnic") 

employee

# A tibble: 200 × 2
   gender ethnic
   <chr>  <chr> 
 1 male   White 
 2 female White 
 3 male   White 
 4 female White 
 5 male   White 
 6 female White 
 7 male   White 
 8 female White 
 9 male   White 
10 female White 
# ℹ 190 more rows
…
